{
    "1.1bgwy": "Alpestre",
    "1.1bwyk": "Saarland",
    "1.1rbyg": "Pur\u00e9pecha",
    "1.1rwgb": "Ijui",
    "1.1wkry": "9",
    "1.1wrby": "Almere",
    "1.1wygr": "Plz\u0148",
    "1.1ykwr": "W\u0142oc\u0142awski",
    "1.2bg": "Puenos Aires",
    "1.2bk": "Guadeloupe",
    "1.2br": "Liechtenstein, Ha\u00efti, Rhein-Lahn-Kreis, E",
    "1.2bw": "Schwarzburg-Rudolstadt, Assen",
    "1.2by": "Braunschweig",
    "1.2gb": "Los Lagos",
    "1.2gk": "Texel",
    "1.2gr": "Pindamonhangaba",
    "1.2gw": "Ascania",
    "1.2gy": "Launceston",
    "1.2kr": "W\u00fcrttemberg",
    "1.2kw": "Freiburg/Fribourg",
    "1.2ky": "Austrian Empire, Czech Silesiau, Baden-W\u00fcrttemberg",
    "1.2rb": "Kiribati, Tessin, PLAAF",
    "1.2rg": "Burkina Faso, PLAGF, La Paz",
    "1.2rk": "Ukrainian Insurgency Army",
    "1.2rw": "Indonesia, Kiribati, Singapore, Obwalden, Solothurn, Hesse, Monaco, Barnim",
    "1.2ry": "PLARF, Burgenland",
    "1.2wb": "Bayern",
    "1.2wg": "Vaud, Steiermark, Sachsen, Pando",
    "1.2wk": "Hohenzollern",
    "1.2wr": "Poland, L\u00fcbeck",
    "1.2wy": "Schlesien",
    "1.2yb": "Thunder Bay",
    "1.2yg": "Victoria",
    "1.2yk": "Sachsen-Anhalt",
    "1.2yr": "Lippe, Chinese Eastern Railway, 7",
    "1.2yw": "Hannover, 6",
    "1.3bg": "Ottawa",
    "1.3bk": "Monmouthshire",
    "1.3br": "New Ireland, PRC, Paris",
    "1.3bw": "Kingdom of Portugal, Argentine army",
    "1.3by": "Australian Capital Territory",
    "1.3gb": "Bosilovo, Irish defence force",
    "1.3gr": "Portugal",
    "1.3gw": "Tonaya, Franco-Ontarians",
    "1.3gy": "Rio Claro",
    "1.3kb": "Aargau",
    "1.3kr": "Northern Territory, Ha\u00efti",
    "1.3kw": "Grauer Bund",
    "1.3ky": "Northern Territory, Bundeswehr",
    "1.3rb": "Tessin",
    "1.3rk": "Ha\u00efti",
    "1.3rw": "Algeria",
    "1.3ry": "Rome, Papal State",
    "1.3wb": "A",
    "1.3wg": "Wales",
    "1.3wr": "Me\u0111imurje County, H",
    "1.3wy": "Cachoeira do Sul",
    "1.3yb": "Poti, Split-Dalmatia, K, 5",
    "1.3yg": "Caldas",
    "1.3yr": "Gen\u00e8ve",
    "1.3yw": "Vatican",
    "1.4bg": "Kutaisi",
    "1.4br": "South Moravian, Queen of New Zealand",
    "1.4bw": "Picardy",
    "1.4by": "Zapallar, Olomouc, Zl\u00edn, UK civil defence",
    "1.4gw": "Schmalkalden-Meiningen, Nazi-Kfz",
    "1.4gy": "Pastaza",
    "1.4kw": "Grauer Bund, Armeestab (Weimar)",
    "1.4ky": "Sul\u0119ci\u0144ski",
    "1.4rb": "Karlovy Vary, Liberec, Koprivnica-Kri\u017eevci",
    "1.4rg": "Plze\u0148",
    "1.4rk": "Georgian Empire",
    "1.4rw": "Central Bohemian",
    "1.4ry": "Selangor",
    "1.4wb": "Rio de Janeiro, U",
    "1.4wg": "Bad D\u00fcrkheim, Oca\u00f1a",
    "1.4wk": "Hohenzollern, US chief of space force",
    "1.4wr": "Brzeski",
    "1.4wry": "Angus",
    "1.4yb": "French Community",
    "1.4yg": "Nairobi",
    "1.4yr": "Auvergne-Rh\u00f4ne-Alpes, Rhein-Pfalz-Kreis, S\u00fcdliche Weinstra\u00dfe",
    "1.4yw": "rations depot, Rothesay",
    "1.5bwr": "Vyso\u010dina",
    "1.5rwb": "Casablanca, Monteria",
    "1.5wkr": "ostafrikanische Eisehnbahn",
    "1.6bwy": "Winterswijk",
    "1.6rby": "Czechia",
    "1.6ryb": "Queen of England",
    "1.6wrb": "Panama",
    "1.6yrb": "Queen of Scotland, Queen of Tonga",
    "1.7bwr": "Texas",
    "1.7gyr": "Benin, Cape Verde",
    "1.7rbw": "North Carolina",
    "1.7rwk": "Rio Grande",
    "1.7ryg": "Guinea-Bissau",
    "1.7wbg": "Cidreira",
    "1.7wbr": "Filippines",
    "1.7wgb": "Kalilangan, Portland",
    "1.7wrg": "Madagascar, Belarus",
    "1.7ygb": "Portland",
    "1.7ygr": "Cape Verde",
    "1.7ywg": "Zielona G\u00f3ra",
    "1.8brg": "Pa\u2019O",
    "1.8brw": "North Carolina",
    "1.8bwr": "Chile",
    "1.8rwb": "Demajagua",
    "1.8ybw": "Duke of Edinburgh",
    "10.1brgy": "Forquetinha",
    "10.1rywg": "English canal boat marking",
    "10.1rywk": "Maya",
    "10.1wbgr": "Red funnel",
    "10.1wbry": "P\u0026O",
    "10.1wrky": "Federated Malay States",
    "10.1ykbr": "Z",
    "10.2bg": "US chief of national gard",
    "10.2bw": "Osorno",
    "10.2gk": "green anarchists",
    "10.2gr": "Canoas",
    "10.2gy": "Rana",
    "10.2kr": "Sandaun",
    "10.2rb": "Lanzarote",
    "10.2rg": "Casanare, Eastern Highlands",
    "10.2rk": "Sigave, anarchists",
    "10.2rw": "\u010ca\u0161ka",
    "10.2ry": "Zamo\u015b\u0107",
    "10.2wb": "Pontevedra",
    "10.2wg": "Igapora",
    "10.2yb": "Ruda \u015al\u0105ska, Irish defence force",
    "10.2yg": "Vasilevo",
    "10.2yk": "anarchocapitalists",
    "10.2yr": "Bhutan",
    "10.3bg": "Solomon ilands",
    "10.3bk": "Israeli air defense",
    "10.3br": "Israeli MP",
    "10.3bw": "Dnipropetrovsk",
    "10.3by": "Israeli logistics corps",
    "10.3gb": "Christmas iland, Israeli education corps",
    "10.3gk": "Enga",
    "10.3gr": "Israeli civil dense",
    "10.3gy": "French Guiana",
    "10.3kg": "Israeli infantry, Israeli armored corps",
    "10.3kw": "FIA warning, US chief of space force",
    "10.3rb": "New Ginea Central Province",
    "10.3rg": "East Sepik",
    "10.3rk": "Papua New Ginea, Israeli artillery corps",
    "10.3rw": "Tlaxcala, Israeli medics",
    "10.3ry": "Israeli tech corps, O",
    "10.3wb": "Z\u00fcrich",
    "10.3wg": "Thurgau, Hu\u00e1nuco, Israeli intelligence corp, Nahal brigade",
    "10.3wr": "Givati brigade, paratroopers brigade",
    "10.3wy": "Israeli combat intelligence",
    "10.3yb": "Bosnia and Herzegovia, Acre",
    "10.3yg": "Golani brigade",
    "10.4kw": "Reichsheer",
    "10.4rb": "Sweden-Norway (sildesalaten)",
    "10.4rw": "Zugschluss",
    "10.4ry": "Aragua",
    "10.4wb": "Sri Lanka police",
    "10.4wr": "Peru, ammunition depot",
    "10.4yg": "Grenada",
    "11.1brygw": "Cai\u00e7ara",
    "11.1rgybw": "Esteio",
    "11.1ykbwr": "Empire of China",
    "11.4brw": "Seychelles, Polish conservatives",
    "11.4bwr": "Hengrave",
    "11.4byw": "Nova Boa Vista",
    "11.4gky": "Jamaica",
    "11.4grw": "Doutor Ricardo",
    "11.4gwr": "Bexhill-on-Sea",
    "11.4rbk": "Barrac\u00e3o",
    "11.4rbw": "Dingli",
    "11.4rby": "Peh\u010devo",
    "11.4rgw": "Burundi",
    "11.6ywrb": "Katwijk",
    "11.7br": "South African Republic, Trans-Mississippi (CSA)",
    "11.7bw": "Scotland, Georgian coast gard, M",
    "11.7by": "St Albans",
    "11.7gb": "Russian coast gard",
    "11.7gr": "Belarus border gard",
    "11.7gw": "Russian Customs",
    "11.7kw": "White Army",
    "11.7ky": "Argill\u2019s rising",
    "11.7rb": "Vladivostok, CSA battle flag",
    "11.7rg": "Basque Country",
    "11.7rk": "Nazi Zeppelin Reederei",
    "11.7rw": "Gascony, Potosi",
    "11.7ry": "pit closed, Nazi Zeppelin Reederei",
    "11.7wb": "Russian Navy",
    "11.7wg": "Portugese minister",
    "11.7wk": "Scarsdale",
    "11.7wr": "St. Patrick, West Britain, Burgundy, V",
    "11.7yk": "Senglea, Heeresleitung (Weimar)",
    "11.7yr": "Tercio Moradon Viejos",
    "12.1brgky": "Bobonaro",
    "12.1rwbky": "Liqui\u00e7\u00e1",
    "12.2bgky": "Manatuto",
    "12.2gwb": "South Africa",
    "12.3bky": "Ainaro",
    "12.3bwy": "Caibat\u00e9",
    "12.3gky": "Laut\u00e9m",
    "12.3gry": "Guyana",
    "12.3rbw": "Zaltbommel",
    "12.3rky": "East Timor, Manufahi",
    "12.3wky": "Baucau",
    "12.4gwry": "Cristal",
    "12.4rgbk": "South Afrika",
    "12.5bwy": "Tuva republic",
    "12.5rwb": "Gori",
    "12.5ybr": "Kropyvnytskyi",
    "12.6wb": "Sosnowiec",
    "12.6yb": "Cherepovets",
    "13.1bgyw": "South Africa",
    "13.1grby": "South Africa",
    "14.1bgw": "Bom Sucesso do Sul",
    "14.1bwg": "Augustowski, Roraima",
    "14.1bwr": "Tierra del Fuego, Tocantins",
    "14.1bwy": "Winnipeg, Tocantins",
    "14.1byg": "Solomon ilands",
    "14.1byw": "Bom Sucesso do Sul",
    "14.1gbr": "Ancud",
    "14.1gbw": "Novosibirsk",
    "14.1gby": "Itaucu",
    "14.1grk": "Makedonska Kamenica",
    "14.1gry": "Rio Grande do Sul",
    "14.1gwb": "Mato Grosso do Sul",
    "14.1gwk": "Jastrz\u0119bie Zdr\u00f3j",
    "14.1gwr": "Encantado",
    "14.1gwy": "Bossoroca",
    "14.1gyb": "Mariana Pimentel",
    "14.1gyr": "Rep. Congo",
    "14.1kwr": "W\u0105brzeski",
    "14.1rbw": "Tennessee",
    "14.1rgw": "Katanga, Iturbide\u2019s infantry",
    "14.1rkg": "Villa de Leyva",
    "14.1rwb": "Bosnia and Herzegovia, Yaracuy",
    "14.1rwg": "Caseiros",
    "14.1ryb": "Radziejowski",
    "14.1wgr": "Mexican navy, Iturbide\u2019s infantry",
    "14.1wry": "FNLA",
    "14.1ygr": "Kobierzyce",
    "14.1ykr": "Charqueadas",
    "14.1yrg": "Rio Grande do Sul",
    "14.1ywb": "Bonaire",
    "14.1ywg": "Cacique Doble",
    "14.2bg": "Maull\u00edn",
    "14.2bwr": "Jaguaripe",
    "14.2byr": "\u00c1gua Santa",
    "14.2gwk": "Western Highlands, Islamabad Capital Territory ",
    "14.2gwy": "Jiwaka",
    "14.2gyb": "Bom Retiro do Sul",
    "14.2kgr": "East New Britain, Simbu",
    "14.2rgk": "Chimbu",
    "14.2rgw": "Iturbide\u2019s infantry",
    "14.2rwy": "Voronezh",
    "14.2ryg": "Dom Pedro de Alc\u00e2ntara",
    "14.2ybr": "\u010ce\u0161inovo-Oble\u0161evo",
    "14.3br": "Namibia police",
    "14.3by": "give way (Nascar)",
    "14.3gw": "Bernkastel-Wittlich",
    "14.3rkg": "Southern Highlands",
    "14.3rw": "Cabo de Hornos",
    "14.3yb": "Walchum",
    "14.3yg": "Itterbeck",
    "14.3yr": "Amhara",
    "14.4bg": "Tumbes",
    "14.4br": "Miko\u0142owski",
    "14.4bw": "Champagne-Ardenne, G\u017cira, Israeli C4I",
    "14.4by": "Tearce",
    "14.4gb": "Kursk",
    "14.4gr": "Niz\u0101r\u012b Ism\u0101\u2019\u012bl\u012b",
    "14.4gw": "Paran\u00e1",
    "14.4rw": "Par\u00e1, Alsace",
    "14.4ry": "Bern",
    "14.4wb": "Galicia, US helth deputy",
    "14.4wr": "Campania",
    "14.4yb": "Guarda de f\u00f3cos geradores",
    "14.4yg": "Guarda de Capturas",
    "14.4yk": "Rhede (Ems)",
    "14.4yr": "Lorraine, Baden",
    "14.4yw": "Comayagua",
    "15.2gry": "Coqueiro Baixo",
    "15.2rbw": "Saba",
    "15.7br": "US fisheries",
    "15.7bw": "Sint Eustatius, Joinville, Mato Grosso",
    "15.7by": "Delaware",
    "15.7gy": "Brazil",
    "15.7rb": "Moldovan military",
    "15.7rw": "Arkansas, Alawite State, Second Venezuelan Republic",
    "15.7wr": "F",
    "16.1bwgy": "South Africa",
    "16.1bwrg": "Khakassia",
    "16.1gwkr": "UAE",
    "16.1gwrb": "Venda",
    "16.1kryg": "GDR border troops",
    "16.1kwrg": "Goshen",
    "16.1rwbg": "Klein Vrystaat, South African Republic",
    "16.1rwgb": "Nieuwe Republiek",
    "16.2byr": "Opmeer",
    "16.2bwr": "Kaluga",
    "16.2rwg": "Yucat\u00e1n",
    "16.3bkg": "South Sea Ilanders",
    "16.3rwgk": "Zimbabwe Rhodesia",
    "16.3wgy": "Imavere",
    "16.3wrg": "Oman",
    "17.2wb": "Ajuricaba",
    "17.2wr": "Greenland",
    "17.3brg": "Roma",
    "17.3bwr": "Filippines, Ha\u00efti",
    "17.3bwy": "Ukrainian sea gard",
    "17.3byr": "Australian Aboriginal",
    "17.3rbw": "South Korean peoples frot",
    "17.3rwb": "Kokand Autonomy",
    "17.3ryb": "NLF South Vietnam",
    "17.3ryk": "MPLA",
    "17.3wgr": "Wales",
    "19.3brw": "Marshal ilands",
    "19.3byw": "Marshal ilands",
    "19.4ykr": "Sarawak",
    "19.4ywk": "Brunei",
    "2.1bgr": "Wenufoye",
    "2.1bgw": "Komi republic",
    "2.1bkg": "Fillippine armed forces, Zanzibar",
    "2.1bkw": "Estonia",
    "2.1bky": "Placilla",
    "2.1brg": "Azerbaijan",
    "2.1brw": "Patagonia",
    "2.1bry": "Transilvania, Galicia",
    "2.1bwg": "Lesotho, Uzbekistan, Una-Sana, Santa Juana",
    "2.1bwk": "Saar Territory",
    "2.1bwr": "Mississippi, Rio Negro, Schleswig-Holstein",
    "2.1bwy": "Magallanes",
    "2.1byg": "Conc\u00f3n",
    "2.1byk": "Cerro Navia",
    "2.1byr": "Mecklenburg, Anconine Republic",
    "2.1byw": "Russian empire",
    "2.1gbr": "Dagestan, Sidama",
    "2.1gkr": "Duitama",
    "2.1grb": "Bah\u00eda Solano",
    "2.1grk": "Republic of New Africa",
    "2.1grw": "Duchy of Estonia, Ipiales, Sogamoso",
    "2.1gry": "Helvetische Republik",
    "2.1gwb": "Sierra Leone",
    "2.1gwk": "Yung Arab society, Ahrweiler",
    "2.1gwr": "Nordrhein-Westfalen, Pindamonhangaba",
    "2.1gwy": "La Pintana, Tef\u00e9",
    "2.1gyb": "Gabon",
    "2.1gyr": "Ethiopia",
    "2.1kbr": "Donetsk People's Republic",
    "2.1kgr": "Arab literatur eclub",
    "2.1kgw": "Borussia M\u00f6nchengladbach",
    "2.1kgy": "Sachsen-Weimar-Eisenach, ANC",
    "2.1krb": "Ostfriesland",
    "2.1krg": "Kenya, Malawi",
    "2.1krw": "Reutlingen",
    "2.1kry": "Germany",
    "2.1kwb": "Neutral Moresnet",
    "2.1kwg": "Lower Yafa, Gelsenkirchen",
    "2.1kwr": "German Empire",
    "2.1kwy": "Powiat Trzebnicki",
    "2.1kyb": "Zanzibar",
    "2.1kyg": "Sachsen-Weimar-Eisenach",
    "2.1kyr": "Inowroc\u0142awski",
    "2.1kyw": "Russian empire",
    "2.1rbg": "Gambia",
    "2.1rbw": "Serbia",
    "2.1rby": "Armenia, Palmira atoll",
    "2.1rgb": "polisexuality",
    "2.1rgw": "Anhalt",
    "2.1rkg": "UNIA, Biafra, Malawi",
    "2.1rky": "Brabant Revolution",
    "2.1rwb": "Croatia, Netherlands, Luxembourg, Paraguay",
    "2.1rwg": "Hungary, Tajikistan, India, Nanjing",
    "2.1rwk": "Egipt, Iraq, Siria, Yemen",
    "2.1rwy": "Austrian Netherlands",
    "2.1ryb": "pansexuality, Pest, Fiume",
    "2.1ryg": "Bolivia, Ghana, Budapest",
    "2.1ryk": "Madang, Belgian Revolution, Germany",
    "2.1wbg": "Sverdlovsk",
    "2.1wbr": "Russia, Slovakia, Slovenia",
    "2.1wby": "\u00d1u\u00f1oa",
    "2.1wgb": "Labrador",
    "2.1wgk": "Neutrois",
    "2.1wgr": "Bulgaria",
    "2.1wgy": "Huila, Orellana, Zamora Chinchipe",
    "2.1wkr": "Rawski",
    "2.1wrb": "Bohemia-Moravia, Schaumburg-Lippe, Misiones, French revolutionists\u2019 flag",
    "2.1wry": "Wojew\u00f3dztwo lubelskie, South Ossetia",
    "2.1wyb": "Mariquina",
    "2.1wyg": "Requ\u00ednoa",
    "2.1wyk": "Perak",
    "2.1wyr": "Wojew\u00f3dztwo ma\u0142opolskie, Franco-Manitobans",
    "2.1ybr": "Colombia, Ecudor, Venezuela",
    "2.1ybw": "Milicki",
    "2.1ygb": "Wojew\u00f3dztwo opolskie,Thunder Bay",
    "2.1ygk": "Hela",
    "2.1ygr": "Lithuania, Myanmar, \u00c6r\u00f8",
    "2.1ykb": "Chojnicki ",
    "2.1ykr": "T\u00e1chira",
    "2.1yrb": "Noord-Holland, Margraviate of Istria",
    "2.1yrg": "Ethiopia",
    "2.1yrk": "Germany",
    "2.1yrw": "K\u00e4rnten",
    "2.1ywb": "Panguipulli",
    "2.1ywg": "Niger, India, Transkei",
    "2.1ywr": "Bielsko-Bia\u0142a",
    "2.2bg": "Juan Fern\u00e1ndez ilands",
    "2.2br": "North Korea, Red Sea governorate",
    "2.2bw": "Argentina, Nicaragua, El Salvador, Honduras, J",
    "2.2by": "Nauru, Wojew\u00f3dztwo \u015bl\u0105skie",
    "2.2gb": "Peterborough",
    "2.2gk": "Khanate of Khiva",
    "2.2gr": "Suriname, Facatativa",
    "2.2gw": "East Flanders, Santa Cruz",
    "2.2gy": "Cauca, Bucaramanga, Po\u017eega-Slavonia, Society ilands",
    "2.2kb": "Mae Hong",
    "2.2kr": "Nong Khai",
    "2.2kw": "Prussia",
    "2.2ky": "Rhein-Erft-Kreis",
    "2.2rb": "Belize, Cambodia",
    "2.2rg": "Mauritania,Transnistria",
    "2.2rk": "Albany, Amsterdam",
    "2.2rw": "Austria, Latvia, Lebanon",
    "2.2ry": "PRC",
    "2.2wb": "Tucum\u00e1n, Gambier ilands",
    "2.2wg": "Sachsen-Meiningen, Estonian counties",
    "2.2wk": "Delft, Posen (sic)",
    "2.2wr": "Atl\u00e1ntico, Belarus protests",
    "2.2wy": "Polish hospital ship",
    "2.2yb": "Popay\u00e1n, Schwerin, D",
    "2.2yg": "Kainuu",
    "2.2yk": "Northern Savonia",
    "2.2yr": "Baden",
    "20.1bwrg": "Namibia",
    "20.1gykb": "Tanzania",
    "20.1gykr": "St. Kitts and Nevis",
    "20.1kwrb": "New Zealand (proposal)",
    "20.2bwgr": "Morro Reuter",
    "20.2rwbg": "Tiraspol",
    "20.3bwy": "Franco-Yukonnais",
    "20.3byr": "Dem. Rep. Congo",
    "20.4rwk": "Trinidad and Tobago",
    "23.6gw": "European Movement International, European federalists",
    "23.6rw": "European Movement International, European federalists",
    "23.6wg": "European Movement International, European federalists",
    "24.2bwr": "Cuba",
    "24.2rwb": "Puerto Rico",
    "25.1byrwg": "Seychelles",
    "26.6bgw": "Oude IJsselstreek",
    "3.1bgr": "Moquegua",
    "3.1brw": "French secod republic",
    "3.1bry": "Piura",
    "3.1bwg": "Palena",
    "3.1bwr": "France",
    "3.1bwy": "Penang",
    "3.1byg": "Sudan, Papua New Guinea",
    "3.1byr": "Andorra, Chad, Romania, Moldova",
    "3.1grb": "Liguria",
    "3.1gry": "Cameroon",
    "3.1gwb": "Chaco",
    "3.1gwk": " Areopagus of Eastern Continental Greece",
    "3.1gwr": "Ireland, Italy, Mexico, Neuch\u00e2tel",
    "3.1gwy": "Ireland",
    "3.1gyb": "St. Kitts, Nevis, Anguilla",
    "3.1gyr": "Mali, Senegal",
    "3.1krg": "Afghanistan",
    "3.1kry": "Reu\u00df, Germany",
    "3.1kwb": "Saint-Damien",
    "3.1kwg": "Iraq",
    "3.1kwr": "Roman republic",
    "3.1kyb": "Oberfranken",
    "3.1kyr": "Belgium",
    "3.1rbw": "Piotrk\u00f3w Trybunalski",
    "3.1rby": "New Granada",
    "3.1rgb": "Armenian Diaspora",
    "3.1rkb": "Kamiennog\u00f3rski",
    "3.1rwb": "Alagoas, C\u00f3rdoba, Santa Fe, T, 3",
    "3.1rwg": "Ivory Coast, Benjamin Constant do Sul",
    "3.1rwy": "Ivory Coast",
    "3.1ryb": "Niederbayern",
    "3.1ryg": "Guinea, Rwanda",
    "3.1wbr": "Mexican Insurgents",
    "3.1wby": "Canary Ilands",
    "3.1wgb": "La Matap\u00e9dia",
    "3.1wky": "Unterfranken",
    "3.1wyb": "Krapkowicki",
    "3.1wyr": "Maringa",
    "3.1ybr": "Buski, Myanmar police",
    "3.1ybw": "Ovalle, Peumo",
    "3.1yrg": "Hualqui",
    "3.1yrw": "Boles\u0142awiecki, Nyski",
    "3.1ywb": "Vi\u00f1a del Mar",
    "3.1ywg": "Matan",
    "3.1ywr": "Columbus",
    "3.2br": "Brest",
    "3.2bw": "Guatemala",
    "3.2by": "Fernie",
    "3.2gk": "Delhi Sultanate",
    "3.2gw": "Nigeria, Norfolk iland",
    "3.2gy": "El Oro, Prince Albert",
    "3.2rb": "Mongolia",
    "3.2rk": "Drogheda",
    "3.2rw": "Canada, Peru",
    "3.2ry": "PRC",
    "3.2wb": "Central Ostrobothnia",
    "3.2yb": "Hamilton",
    "3.2yg": "North Cowichan",
    "3.2yk": "Cornwall",
    "3.2yr": "Natuaqanek Band, 0",
    "3.2yw": "Neuch\u00e2te",
    "4.1wgrkb": "Belgorod Oblast",
    "4.2brw": "Dominican Republic",
    "4.2bwk": "Estonia",
    "4.3kgw": "Borussia M\u00f6nchengladbach",
    "4.2rgk": "BAJARAKA",
    "4.2ybw": "Scilly",
    "4.3bkr": "Shadiversity",
    "4.3brw": "Dominican Republic",
    "4.3bry": "Mingrelia",
    "4.3byw": "Zhytomyr",
    "4.3kyw": "L\u00e9vis",
    "4.3rbw": "Georgian national gard",
    "4.3rby": "Mingrelia",
    "4.3wrb": "ship Oryol",
    "4.3ygw": "Hof van Twente",
    "4.4bgw": "Areias",
    "4.4brw": "Saar protectorate",
    "4.4rbw": "Samos",
    "4.4rgw": "Aldtsjerk",
    "4.4wg": "South African navy",
    "4.5bg": "Votes",
    "4.5bk": "Thrace and Samothrace",
    "4.5br": "Oldenburg",
    "4.5bw": "Martinique, Shettland, Royal New Zealand Yacht, Eureka, Iceland",
    "4.5by": "Sweden",
    "4.5gr": "Jutland, Belarus general staff",
    "4.5gw": "Greenland",
    "4.5gy": "Pula",
    "4.5kw": "Cornwall",
    "4.5ky": "Saint David",
    "4.5rg": "Bornholm",
    "4.5rk": "deutscher Kaiser",
    "4.5rw": "Denmark, Switzerland, 4",
    "4.5ry": "Scania, Sk\u00e5neland, R",
    "4.5wb": "Finnland, Iceland, X",
    "4.5wg": "\u017bejtun, Portogese navy minister, Green cross, royal Hungarian high command",
    "4.5wk": "German Imperial war flag",
    "4.5wr": "England, Georgia, 8",
    "4.5wy": "Tr\u00f8ndelag",
    "4.5yb": "Vagharshapat",
    "4.5yg": "Gloucester",
    "4.5yk": "Wellington, deutscher Kaiser, yellow neonazi flag",
    "4.5yr": "Kalmar Union, Vagharshapat",
    "4.5yw": "Stavropol",
    "5.2gywr": "Saguenay\u2013Lac-Saint-Jean",
    "5.2kywr": "proposed German Imperial war ensign",
    "5.2yrkw": "proposed German Imperial war ensign",
    "5.3gbry": "Lincolnshire",
    "5.3gyrw": "S\u00e3o Nicolau",
    "5.3rbgw": "Groningen",
    "5.4bwyk": "Bedum",
    "5.4gry": "Lithuania",
    "5.5bgw": "Komi Republic",
    "5.5bgy": "Vendsyssel",
    "5.5bkw": "Estonia",
    "5.5brw": "Iceland",
    "5.5bry": "\u00c5land, Domingos Martins, Moldova",
    "5.5bwk": "Estonia",
    "5.5byw": "Roslagen",
    "5.5gbw": "Gloucestershire, Vinnland",
    "5.5gby": "Vepsians, North Yorkshire",
    "5.5gkr": "East Karelia",
    "5.5gkw": "Borussia M\u00f6nchengladbach",
    "5.5grw": "Colorado, Gr\u00e3o Par\u00e1, Nottinghamshire",
    "5.5gry": "Pirapora do Bom Jesus, Lithuania",
    "5.5gwb": "Greenland",
    "5.5gwk": "Devon",
    "5.5gwr": "Latvian border gard",
    "5.5gwy": "Dominica",
    "5.5kbw": "Kekistan-adjacent",
    "5.5kby": "Caithness",
    "5.5krw": "Durham",
    "5.5kry": "Germany",
    "5.5rbw": "Norway",
    "5.5rby": "Orkney, Carmo do Paranaiba",
    "5.5rgw": "Hungarian yating association",
    "5.5rkw": "Nazi war flag",
    "5.5rky": "Germany, Pegida",
    "5.5rwb": "Spartacus sailing club",
    "5.5rwg": "Greenland",
    "5.5ryk": "Northamptonshire, Germany",
    "5.5wbk": "Estonia",
    "5.5wby": "Bayam\u00f4n",
    "5.5wrb": "Faroe",
    "5.5wrg": "Hungarian yat squadron",
    "5.5wyb": "Norrland",
    "5.5ybr": "Ingrians, Frisia",
    "5.5ykw": "yellow neonazi flag",
    "5.5ywb": "Frisia",
    "5.5ywr": "Dorset",
    "5.6bw": "Civil Aviation New Zealand",
    "5.6gw": "Ladonia",
    "5.6kbw": "Kekistan-adjacent",
    "5.6ry": "Normandy",
    "5.6wb": "Finnish yacht club, Idrottsf\u00f6reningen Kamraterna",
    "5.6wg": "Ventspils",
    "5.6wr": "Latvian navy",
    "6.1bwgr": "Afar",
    "6.1bygw": "Braniewski",
    "6.1gkyr": "Mozambique",
    "6.1grky": "Azawad",
    "6.1gwkr": "Ahwanz",
    "6.1gwrb": "Equatorial Guinea, Somali",
    "6.1gwrk": "Kuwait",
    "6.1gwry": "Somali",
    "6.1kgwr": "Arab Revolt, Hejaz",
    "6.1krgb": "South Sudan",
    "6.1kwgr": "Jordan, Ba\u2019ath Party, Iraq, Palestine",
    "6.1kygr": "Benishangul-Gumuz",
    "6.1rwgb": "Imbabura",
    "6.1rwkb": "South Yemen",
    "6.1rwkg": "Sudan",
    "6.1wbgr": "Tyumen",
    "6.1ybgw": "Apure",
    "6.2byk": "Bahamas",
    "6.2gyr": "Sao Tome and Principe",
    "6.2rby": "San Juan de Pasto",
    "6.2wgr": "Hungarian flag society",
    "6.2ygr": "Hadhramaut",
    "6.3br": "Belarus SCA",
    "6.3bw": "Chukotka, Israeli navy",
    "6.3rb": "Aeroflot",
    "6.3ry": "PRC, Pereira",
    "6.3yr": "Sittard-Geleen",
    "7.1bgw": "Djibouti",
    "7.1bgy": "President of Namibia",
    "7.1brw": "Filippines",
    "7.1bwr": "Sabah",
    "7.1bwy": "South Cotabato",
    "7.1gbr": "Eritrea",
    "7.1gbw": "El Hierro",
    "7.1gby": "South Africa",
    "7.1gkr": "Martinique",
    "7.1grb": "Bosnia and Herzegovia, Belutschistan",
    "7.1gry": "Zabaykalsky",
    "7.1kyr": "Odenwaldkreis",
    "7.1rbw": "Sint Maarten, Fillippines",
    "7.1rgk": "Vanuatu",
    "7.1rwb": "Sarawak",
    "7.1rwg": "Trujillo",
    "7.1wbg": "Khabarovsk",
    "7.1wrb": "Czechia",
    "7.1wrg": "Zundert",
    "7.1wry": "Cz\u0119stochowski",
    "7.1ybg": "Green Ukraine",
    "7.1ybr": "Raspberry Ukraine",
    "7.1ybw": "US secret service",
    "7.1ygr": "Abejorral",
    "7.1ykr": "Anenii Noi",
    "7.1yrb": "\u0141om\u017ca",
    "7.1yrw": "Marquesas ilands",
    "8.1brk": "black trans",
    "8.1brw": "trans",
    "8.1bwg": "K\u0119trzy\u0144ski",
    "8.1bwk": "Botswana",
    "8.1bwr": "Costa Rica, C",
    "8.1byr": "Eswatini",
    "8.1gkb": "Torres Strait Ilanders",
    "8.1gwb": "Innu",
    "8.1gwr": "Suriname",
    "8.1gyb": "Diamantino",
    "8.1gyk": "Tanganyika, Jamaika",
    "8.1gyr": "Algerian navy",
    "8.1kwr": "Ralik-Inseln",
    "8.1rbg": "Indian air force",
    "8.1rbw": "Kirghizia",
    "8.1rby": "Loja",
    "8.1rkw": "Belarusian Democratic Republic",
    "8.1rwb": "Thailand, PLAN",
    "8.1ryb": "Nordfriesland, Over\u0133ssel",
    "8.1ryk": "Santander",
    "8.1wyb": "Rivne",
    "8.1ybg": "Indian air force",
    "8.1ybw": "Wodzis\u0142awski ",
    "8.2br": "Vinnytsia",
    "8.2bw": "Primorje-Gorski, \u0160ibenik-Knin",
    "8.2by": "Aruba",
    "8.2gb": "Worcestershire",
    "8.2gw": "Egiptian air force, Zagreb",
    "8.2rb": "PRC",
    "8.2rk": "Salta, Ara\u010dinovo",
    "8.2rw": "Mettmann",
    "8.2ry": "PRC",
    "8.2wb": "Israel",
    "8.2wk": "Lauenburg",
    "8.2wr": "Cyprus",
    "8.2yb": "Bytom",
    "8.2yk": "West Midlands",
    "8.3wrg": "Harari",
    "9.1brgy": "New Caledonia",
    "9.1bwry": "Agudo",
    "9.1gwbr": "Venezuelan federal dependencies",
    "9.1gwyb": "Extrema",
    "9.1gyrb": "Ethiopia",
    "9.1gyrw": "Amaral Ferrador",
    "9.1rwgy": "Kurdistan",
    "9.1wrky": "Bukidnon",
    "9.1ygrw": "Myanmar",
    "9.2gry": "Suriname",
    "9.2rbw": "Myanmar",
    "9.2rby": "ANDPF",
    "9.2ryb": "New Greater Viet Party",
    "9.3br": "Kven",
    "9.3bw": "Za\u00efre, Chilean Naval Jack, 2",
    "9.3by": "Palau",
    "9.3gr": "Bangladesh",
    "9.3gw": "Saga",
    "9.3gy": "Delta",
    "9.3ky": "Santa Lu\u010bija",
    "9.3rg": "Zanzibar",
    "9.3rw": "Mukti Bahini",
    "9.3ry": "Tonisia, Xinjiang",
    "9.3wk": "Nagasaki, Kagoshima, Prussia",
    "9.3wr": "Japan, 1",
    "9.3yb": "Bangladeshi DGFI",
    "9.3yg": "Great Way Government",
    "9.3yk": "I",
    "9.3yr": "Great Way government, PDK, Artillerief\u00fchrer (Weimar)",
    "9.3yw": "Infaterief\u00fchrer (Weimar)"
}
